Cumulative impact of various factors on dog bite incidents
…
Overall, while the scatter plot shows a slight systematic deviation,
the final negative binomial regression model still accurately predicts
low and medium value areas. However, the error is larger in high-value
areas, where actual values tend to fall below the predicted values. This
may indicate a tendency of the model to overfit in regions with high
incident counts.

Significance evaluation

filter_model_summary <- tidy(filter_model, exponentiate = TRUE, conf.int = TRUE)
print(filter_model_summary)

## # A tibble: 74 × 7
##    term        estimate std.error statistic  p.value conf.low conf.high
##    <chr>          <dbl>     <dbl>     <dbl>    <dbl>    <dbl>     <dbl>
##  1 (Intercept)    3.83     0.0917   14.6    1.75e-48    3.19      4.57 
##  2 year2016       1.30     0.0901    2.94   3.28e- 3    1.09      1.56 
##  3 year2017       1.14     0.0923    1.41   1.60e- 1    0.950     1.36 
##  4 year2018       1.31     0.0908    2.99   2.80e- 3    1.10      1.57 
##  5 year2019       1.31     0.0905    3.00   2.69e- 3    1.10      1.57 
##  6 year2020       0.823    0.105    -1.86   6.26e- 2    0.669     1.01 
##  7 year2021       0.806    0.107    -2.01   4.44e- 2    0.652     0.993
##  8 month2         0.973    0.0696   -0.395  6.93e- 1    0.849     1.11 
##  9 month3         1.01     0.0685    0.153  8.78e- 1    0.884     1.16 
## 10 month4         0.993    0.0685   -0.0967 9.23e- 1    0.869     1.14 
## # ℹ 64 more rows
…
